<svg width="21" height="21" viewBox="0 0 21 21" fill="none" xmlns="http://www.w3.org/2000/svg">
<circle cx="10.5" cy="10.5" r="5.5" fill="#FF473A"/>
<circle cx="10.5" cy="10.5" r="9.5" stroke="#FF473A" stroke-width="2"/>
</svg>
