<svg width="37" height="37" viewBox="0 0 37 37" fill="none" xmlns="http://www.w3.org/2000/svg">
<g clip-path="url(#clip0_3_360)">
<path d="M18.4845 3.08334C9.97454 3.08334 3.06787 9.99001 3.06787 18.5C3.06787 27.01 9.97454 33.9167 18.4845 33.9167C26.9945 33.9167 33.9012 27.01 33.9012 18.5C33.9012 9.99001 26.9945 3.08334 18.4845 3.08334ZM24.05 12.8575C25.6995 12.8575 27.0254 14.1833 27.0254 15.8329C27.0254 17.4825 25.6995 18.8083 24.05 18.8083C22.4004 18.8083 21.0745 17.4825 21.0745 15.8329C21.0591 14.1833 22.4004 12.8575 24.05 12.8575ZM14.8 10.4217C16.8041 10.4217 18.4383 12.0558 18.4383 14.06C18.4383 16.0642 16.8041 17.6983 14.8 17.6983C12.7958 17.6983 11.1616 16.0642 11.1616 14.06C11.1616 12.0404 12.7804 10.4217 14.8 10.4217ZM14.8 24.4971V30.2783C11.1 29.1221 8.17079 26.27 6.87579 22.6317C8.49454 20.905 12.5337 20.0263 14.8 20.0263C15.617 20.0263 16.65 20.1496 17.7291 20.3654C15.2008 21.7067 14.8 23.4796 14.8 24.4971ZM18.4845 30.8333C18.0683 30.8333 17.6675 30.8179 17.2666 30.7717V24.4971C17.2666 22.3079 21.7991 21.2133 24.05 21.2133C25.6995 21.2133 28.5516 21.8146 29.97 22.9863C28.1662 27.565 23.7108 30.8333 18.4845 30.8333Z" fill="#37DA96"/>
</g>
<defs>
<clipPath id="clip0_3_360">
<rect width="37" height="37" fill="white"/>
</clipPath>
</defs>
</svg>
